{
  "version": 54,
  "tenantid": "myMC",
  "mobappid": 1385,
  "appName": "myMC",
  "appDisplayName": "myMC",
  "homeScreenTemplate": "<script>\r\n    MyCampusApp.rootScope.animatepage = function(currentstyle) {\r\n        $(\".app-body\").addClass(currentstyle);\r\n    }\r\n    var hideInterval = setInterval(function() {\r\n        var animatecss = $(\"#animatecss\");\r\n        if (!animatecss || animatecss.length <= 0) {\r\n            $.ajax({\r\n                url: \"https://raw.githubusercontent.com/daneden/animate.css/master/animate.css\",\r\n                dataType: \"text\",\r\n                success: function(data) {\r\n                    $(\"head\").append(\"<style id='animatecss'>\" + data + \"<\/style>\");\r\n                    clearInterval(hideInterval);\r\n                }\r\n            });\r\n        }\r\n    }, 2000);\r\n    if (!MyCampusApp.rootScope.cangelistadded) {\r\n        MyCampusApp.rootScope.$on(\"$routeChangeStart\", function(event, next, current) {\r\n            $(\".app-body\").attr(\"class\", \"app-body animated \");\r\n        });\r\n        MyCampusApp.rootScope.$on(\"$routeChangeSuccess\", function(event, next, current) {\r\n            currentstyle = \"bounceInRight\";\r\n            if (next.loadedTemplateUrl == \"partials/home.html\" && current.loadedTemplateUrl != \"partials/home.html\") {\r\n                currentstyle = \"bounceInLeft\";\r\n            } else if(current.loadedTemplateUrl != \"partials/home.html\") {\r\n                if (next.params.appid == current.params.appid && next.params.appid == next.params.pageid) {\r\n                    currentstyle = \"bounceInLeft\";\r\n                }\r\n                if (MyCampusApp.rootScope.ppage) {\r\n                  if (MyCampusApp.rootScope.ppage.appid == next.params.appid && MyCampusApp.rootScope.ppage.pageid == next.params.pageid) {\r\n                      currentstyle = \"bounceInLeft\";\r\n                  }\r\n                }\r\n            }\r\n            $(\".app-body\").addClass(currentstyle);\r\n            $(\".app-body\").addClass(\"animated\");\r\n            MyCampusApp.rootScope.cpage = next.params;\r\n            MyCampusApp.rootScope.ppage = current.params;\r\n        });\r\n        MyCampusApp.rootScope.cangelistadded = true;\r\n    }\r\nvar hideInterval = setInterval(function() {\r\n\r\n$(\"#logo-DevicePage\").parents(\"a\").css(\"display\", \"none\");\r\n\r\nif ($(\"#logo-DevicePage\").parents(\"a\").css(\"display\") == \"none\") {\r\n            clearInterval(hideInterval);\r\n        }\r\n    }, 500);\r\n<\/script>",
  "middlewareServerUrl": null,
  "feedbackEmail": null,
  "backgroundurl": "myMC/background.png",
  "brandingurl": "myMC/branding.png",
  "customStyle": "#branding {\r\n  position:absolute !important;\r\n  bottom:40px;\r\n  left:0px !important;\r\n  right:0px !important;\r\n  width:50% !important;\r\n  margin:auto !important;\r\n}\r\nbody {\r\n   position:absolute;\r\n   width:100%;\r\n   height:100%;\r\n   background-size:100% 100% !important;\r\n}\r\n.icon {\r\n   width:56px !important;\r\n   height:56px !important;\r\n}\r\n.campuseai-Info {\r\n  color:white;\r\n}\r\n.dockicon:after {\r\n   bottom:0px !important;\r\n}\r\n\r\n.dockicon {\r\n   margin-bottom:25px !important;\r\n}\r\n\r\n\r\n.blockUI i{\r\n   color:white !important;\r\n}\r\n\r\n@media (min-width: 768px) { \r\n   #branding {\r\n      width:50% !important;\r\n      margin:auto;    \r\n   }\r\n   .icon {\r\n      width:102px !important;\r\n      height:102px !important;\r\n    }\r\n}\r\n\r\n.promptumenu_nav a.active {\r\n   background:#fff;\r\n   border-radius:50%;\r\n   width:10px;\r\n   height:10px;\r\n}\r\n\r\n.promptumenu_nav a {\r\n  background:#00162f;\r\n   border-radius:50%;\r\n   width:10px;\r\n   height:10px;\r\n}\r\n.promptumenu_window {\r\n   overflow:visible !important; \r\n}\r\n\r\n.promptumenu_nav {\r\nmargin-bottom:-3px;\r\n}\r\n\r\n.app-body {\r\n   padding-bottom:19px !important;\r\n}\r\n\r\n.blockUI {\r\n  margin:auto !important;\r\n  left:0px  !important;\r\n  right:0px !important;\r\n  width:auto !important;\r\n}\r\n\r\n#homedata .campuseai-Info {\r\n  width:76px !important;\r\n  margin-left:-10px;\r\n}\r\n@media (min-width : 320px) and (max-width : 480px) { \r\n   .icon { width:56px !important;\r\n     height:56px !important;\r\n   }\r\n   #homedata .campuseai-Info {\r\n     width:76px !important;\r\n     margin-left:-10px;\r\n   }\r\n}\r\n\r\n@media (min-width : 320px) and (max-width : 568px) { \r\n   .icon { width:63px !important;\r\n\t   height:63px !important;\r\n   }\r\n   #homedata .campuseai-Info {\r\n     width:83px !important;\r\n     margin-left:-10px;\r\n   }\r\n}\r\n\r\n#mainSidebar .list-group-item {\r\n  border-bottom:1px solid #000 !important;\r\n}\r\n\r\n#homedata .campuseai-Info {\r\n  font-weight:bold;\r\n  text-shadow:2px 2px 2px #000;\r\n}.navbar-app, .sidebar, #mainSidebar { background : #1480ba !important; } .navbar-brand, .navbar-absolute-top .btn-navbar { color : #ffffff !important; } .navbar-absolute-bottom .navbar-inverse { background :  !important; } .navbar-absolute-bottom .navbar-inverse { color :  !important; } .app { background :  !important; } .campuseai-Info { color : #ffffff !important; } #mainSidebar .list-group-item { background : #1480ba !important; } #mainSidebar .list-group-item { color : #ffffff !important; } #mainSidebar .appgroup { background : #ffffff !important; } #mainSidebar .appgroup { color : #1480ba !important; } .btn-primary { background : #1480ba !important; } .btn-primary { color : #ffffff !important; } .btn-primary { border-color : #ffffff !important; } ",
  "authFunction": "function authFunction(uname, password, $http, $rootScope, success, error) {\r\n  var authSuccess = success;\r\n  var authError = error;\r\n  //Peoplesoft authentication\r\n  /*\r\n    var url = $rootScope.middlewareServerUrl + \"/services/ps/psholds\";\r\n    var data = {};\r\n    if (window.device) {\r\n        data = \"userId=\" + uname + \"&password=\" + password;\r\n    } else {\r\n        url = \"/websimulator/json?url=\" + url;\r\n        data = {\r\n            method: \"POST\",\r\n            body: \"userId=\" + uname + \"&password=\" + password\r\n        };\r\n    }\r\n    $.blockUI({\r\n        message: '<div style=\"margin: 2px; vertical-align: middle; display: inline-block\"><i class=\"icon-cog icon-spin icon-4x\"><\/i><h3>Authenticating<\/h3><\/div>'\r\n    });\r\n    alert(\"URL : \" + url);\r\n    $http.post(url, data).success(function (data, status, headers, config) {\r\n        success(data);\r\n        $.unblockUI();\r\n    }).error(function (data, status, headers, config) {\r\n        error(data);\r\n        $.unblockUI();\r\n    });\r\n*/\r\n  //Banner Authentication with CAS\r\n\r\n  /*var url = \"https://my.curry.edu/cas/v1/tickets/\";\r\n  var data = {};\r\n  if (window.device) {\r\n      data = \"username=\" + uname + \"&password=\" + password;\r\n  } else {\r\n      url = \"/websimulator/text?url=\" + url;\r\n      data = {\r\n          method: \"POST\",\r\n          body: \"username=\" + uname + \"&password=\" + password\r\n      };\r\n  }\r\n\r\n  $rootScope.generateST = function (tgt, service, callback) {\r\n      var data = {};\r\n      if (window.device) {\r\n          data = \"service=\" + service;\r\n      } else {\r\n          url = \"/websimulator/text?url=\" + \"https://my.curry.edu/cas/v1/tickets/\";\r\n          data = {\r\n              method: \"POST\",\r\n              body: \"service=\" + service\r\n          };\r\n      }\r\n\r\n      $.ajax({\r\n          url: url + tgt,\r\n          type: \"POST\",\r\n          async: true,\r\n          data: data,\r\n          error: function (response) {\r\n              alert(\"Error : \" + response);\r\n\r\n          },\r\n          success: function (data) {\r\n              //alert(\"Success : \" + data);\r\n              callback(data);\r\n          }\r\n      });\r\n\r\n  };\r\n\r\n  $.blockUI({\r\n      message: '<div style=\"margin: 2px; vertical-align: middle; display: inline-block\"><i class=\"icon-cog icon-spin icon-4x\"><\/i><h3>Authenticating<\/h3><\/div>'\r\n  });\r\n  $.ajax({\r\n      url: url,\r\n      type: \"POST\",\r\n      async: true,\r\n      data: data,\r\n      error: function (response) {\r\n          $.unblockUI();\r\n      },\r\n      success: function (data) {\r\n          //alert(\"Success : \" + data);\r\n          $.unblockUI();\r\n\r\n      },\r\n      complete: function (response, textStatus) {\r\n          //alert(\"complete : \" + response + \"  text status : \" + textStatus);\r\n          $.unblockUI();\r\n          if (textStatus == \"success\" && response.status == 201) {\r\n              var str = response.getResponseHeader('Location');\r\n              var tgtTicket = str.substr(str.lastIndexOf('/') + 1);\r\n              //generateST(tgtTicket);\r\n              success({\r\n                  \"ticket\": tgtTicket\r\n              });\r\n              $rootScope.$apply(function () {\r\n\r\n                  $rootScope.setRoute(\"/home\");\r\n\r\n              });\r\n\r\n\r\n          } else {\r\n              success({\r\n                  \"error\": \"Oops! Cannot log you in. Please check your login details.\"\r\n              });\r\n          }\r\n      }\r\n\r\n  });*/\r\n\r\n\r\n  //Banner Authentication with LDAP - middlware auth\r\n\r\n  /*var url = $rootScope.middlewareServerUrl + \"/bannermobile2/services/authenticate/login\";\r\n    var data = {};\r\n    if (window.device) {\r\n        data = \"username=\" + uname + \"&password=\" + password;\r\n    } else {\r\n        url = \"/websimulator/json?url=\" + url;\r\n        data = {\r\n            method: \"POST\",\r\n            body: \"username=\" + uname + \"&password=\" + password\r\n        };\r\n    }\r\n    var authUrl = url;\r\n    var authData = data;\r\n    $rootScope.generateST = function(tgt, service, callback) {\r\n        //Bypassing the ST as there is no service ticket required here..\r\n        callback(tgt);\r\n    };\r\n\r\n    $rootScope.postAPI = function(endpoint, postdata, callback) {\r\n        $.blockUI();\r\n        $rootScope.generateST($rootScope.ticket, endpoint, function(st) {\r\n            var serviceurl = endpoint + \"?ticket=\" + st;\r\n            var url = \"\";\r\n            var proxyMethod = \"POST\";\r\n            var proxyData = postdata;\r\n            if (window.device) {\r\n                url = serviceurl;\r\n            } else {\r\n                url = \"/websimulator/json?url=\" + serviceurl;\r\n                proxyMethod = \"POST\";\r\n                proxyData = {\r\n                    method: \"POST\",\r\n                    body: postdata\r\n                }\r\n            }\r\n            $http({\r\n                method: proxyMethod,\r\n                url: url,\r\n                data: proxyData\r\n            }).\r\n            success(function(data, status, headers, config) {\r\n                $.unblockUI();\r\n                callback(data, status, headers, config);\r\n            }).\r\n            error(function(data, status, headers, config) {\r\n                $.unblockUI();\r\n                //alert(\"Error in service call : \" + data + \" Status : \" + status);\r\n                if (status == 403) { //Ticket expired.. need to relogin\r\n                    $http.post(authUrl, authData).success(function(data, status, headers, config) {\r\n                        authSuccess(data);\r\n                        $rootScope.getAPI(endpoint, callback);\r\n                    }).error(function(data, status, headers, config) {\r\n                        authError(data);\r\n\r\n                    });\r\n                }\r\n\r\n            });\r\n\r\n        });\r\n\r\n    };\r\n\r\n    $rootScope.getAPI = function(endpoint, callback) {\r\n        $.blockUI();\r\n        $rootScope.generateST($rootScope.ticket, endpoint, function(st) {\r\n            var serviceurl = endpoint + \"?ticket=\" + st;\r\n            var url = \"\";\r\n            var proxyMethod = \"GET\";\r\n            var proxyData = {};\r\n            if (window.device) {\r\n                url = serviceurl;\r\n            } else {\r\n                url = \"/websimulator/json?url=\" + encodeURIComponent(serviceurl);\r\n                proxyMethod = \"POST\";\r\n                proxyData = {\r\n                    method: \"GET\"\r\n                }\r\n            }\r\n            $http({\r\n                method: proxyMethod,\r\n                url: url,\r\n                data: proxyData\r\n            }).\r\n            success(function(data, status, headers, config) {\r\n                $.unblockUI();\r\n                callback(data, status, headers, config);\r\n            }).\r\n            error(function(data, status, headers, config) {\r\n                $.unblockUI();\r\n                //alert(\"Error in service call : \" + data + \" Status : \" + status);\r\n                if (status == 403) { //Ticket expired.. need to relogin\r\n                    $http.post(authUrl, authData).success(function(data, status, headers, config) {\r\n                        authSuccess(data);\r\n                        $rootScope.getAPI(endpoint, callback);\r\n                    }).error(function(data, status, headers, config) {\r\n                        authError(data);\r\n\r\n                    });\r\n                }\r\n\r\n            });\r\n\r\n        });\r\n\r\n    };\r\n\r\n\r\n\r\n*/\r\n  $.blockUI({\r\n    message: '<div style=\"margin: 2px; vertical-align: middle; display: inline-block\"><i class=\"icon-cog icon-spin icon-4x\"><\/i><h3>Authenticating<\/h3><\/div>'\r\n  });\r\n\r\n  $rootScope.gotoHome = function(data) {\r\n    success(data);\r\n  }\r\n\r\n  $rootScope.casAuth = function() {\r\n    var baseUrl = \"https://my.mc.edu\";\r\n    var url = baseUrl + \"/cas/v1/tickets/\";\r\n    var data = {};\r\n    if (window.device) {\r\n      data = \"username=\" + uname + \"&password=\" + encodeURIComponent(password);\r\n    } else {\r\n      url = \"/websimulator/text?url=\" + url;\r\n      data = {\r\n        method: \"POST\",\r\n        body: \"username=\" + uname + \"&password=\" + encodeURIComponent(password)\r\n      };\r\n    }\r\n\r\n    $.ajax({\r\n      url: url,\r\n      type: \"POST\",\r\n      async: true,\r\n      data: data,\r\n      error: function(response) {\r\n        $.unblockUI();\r\n      },\r\n      success: function(data) {\r\n        $.unblockUI();\r\n      },\r\n      complete: function(response, textStatus) {\r\n        $.unblockUI();\r\n        if (textStatus == \"success\" && response.status == 201) {\r\n          var str = response.getResponseHeader('Location');\r\n          var tgtTicket = str.substr(str.lastIndexOf('/') + 1);\r\n          $rootScope.tgtticket = tgtTicket;\r\n          \r\n          data = {};\r\n          data.success = true;\r\n          data.roles = \"\";\r\n          data.ticket = tgtTicket;\r\n          \r\n\r\n          success(data);\r\n          $rootScope.$apply();\r\n        } else {\r\n          alert(\"Oops! Error occured while processing this request.\");\r\n        }\r\n      }\r\n    });\r\n\r\n  }\r\n\r\n\r\n  $rootScope.casAuth();\r\n\r\n\r\n  /*$http.post(url, data).success(function(data, status, headers, config) {\r\n        \r\n        $.unblockUI();\r\n    }).error(function(data, status, headers, config) {\r\n        error(data);\r\n        $.unblockUI();\r\n    });*/\r\n\r\n\r\n}",
  "forgotPasswordUrl": null,
  "reportissueEmail": null,
  "iconWidth": 70,
  "pushconfig": {
    "ApplicationId": "p6VzESLvBsAMYsocxyKRYmni6vqmYbYqgWwgoeCl",
    "RestAPIKey": "nWkO6jI9wNVCo4l8f1xw8n6dnfAb2ghOL3926Xth",
    "ClientKey": "99NIxRhIGj4rWgsNOHaGQ2UVwivhsMijNLJA3xxT"
  },
  "apps": 
  [
    {
      "id": 20971,
      "name": "Facebook263",
      "displayname": "Facebook",
      "logo": "myMC/Facebook263.png",
      "logourl": "myMC/Facebook263.png",
      "description": "Facebook",
      "appFeatureType": "Public",
      "roles": null,
      "showInDock": false,
      "showInHome": true,
      "networkrequired": true,
      "analytics": false,
      "pages": 
      [
        {
          "pageid": "Facebook263",
          "pageTemplate": "<div><\/div>",
          "pageprocessor": "function pageprocessorFacebook263(pagedef, $scope, $routeParams, $compile, $http, $rootScope, $sce, $window, $location) {if (window.device) {$.blockUI();}var iabRef = window.open(pagedef.url, \"_blank\", \"location=yes,hidden=yes,enableViewportScale=yes,clearcache=yes\");var hideBlockUi = function() {$.unblockUI();iabRef.show();        };var iabClose = function(data) {$.unblockUI();iabRef.removeEventListener(\"exit\", iabClose);window.location.href = \"index.html#home\";};iabRef.addEventListener(\"exit\", iabClose);var loadStop = function(data) {hideBlockUi();iabRef.removeEventListener(\"loadstop\", loadStop);};iabRef.addEventListener(\"loadstop\", loadStop);}",
          "url": "https://www.facebook.com/mississippicollege"
        }
      ]
    },
    {
      "id": 20975,
      "name": "Gmail9",
      "displayname": "Gmail",
      "logo": "myMC/Gmail9.png",
      "logourl": "myMC/Gmail9.png",
      "description": "Gmail",
      "appFeatureType": "Banner",
      "roles": "student",
      "showInDock": false,
      "showInHome": true,
      "networkrequired": true,
      "analytics": false,
      "pages": 
      [
        {
          "pageid": "Gmail9",
          "pageTemplate": "<div><\/div>",
          "pageprocessor": "function pageprocessorGmail9(pagedef, $scope, $routeParams, $compile, $http, $rootScope, $sce, $window, $location) {\r\n  $.blockUI();\r\n  try {\r\n    var launchurl = \"https://my.mc.edu/cas/login?service=https://mail.google.com/a/mc.edu\";\r\n    //var launchurl=\"https://my.curry.edu/cas/login?service=https%3A%2F%2Fmy.curry.edu%2Fpaf%2Fauthorize\";\r\n    var iabRef = window.open(launchurl, \"_blank\", \"location=no,hidden=yes,clearcache=yes,enableViewportScale=yes\");\r\n    var hideBlockUi = function() {\r\n      //window.open(qlssourl, \"_blank\");\r\n      iabRef.show();\r\n      $.unblockUI();\r\n    };\r\n    var loadStop = function(data) {\r\n      iabRef.executeScript({\r\n        code: cd\r\n      }, cb);\r\n      if (data.url.indexOf(\"mail.google.com/mail\") != -1) {\r\n        hideBlockUi();\r\n\r\n      }\r\n    };\r\n    iabRef.addEventListener(\"loadstop\", loadStop);\r\n    var iabClose = function(data) {\r\n      $.unblockUI();\r\n      $location.path(\"/home\");\r\n      $scope.$apply();\r\n\r\n    };\r\n    iabRef.addEventListener(\"exit\", iabClose);\r\n    var username = $.jStorage.get(\"username\");\r\n    var password = $.jStorage.get(\"password\");\r\n    var cd = \"document.getElementById('username').value = '\" + username + \"';document.getElementById('password').value = '\" + password + \"';document.getElementsByClassName('btn-submit')[0].click();\";\r\n\r\n    var cb = function(data) {};\r\n\r\n\r\n  } catch (e) {\r\n    alert(\"Error : \" + e);\r\n  }\r\n\r\n\r\n}\r\n\r\n",
          "datatemplate": "<div><h1>Here is a sample HTML content..!!<\/h1><\/div>"
        }
      ]
    },
    {
      "id": 20979,
      "name": "Moodle15",
      "displayname": "Moodle",
      "logo": "myMC/Moodle15.png",
      "logourl": "myMC/Moodle15.png",
      "description": "Moodle",
      "appFeatureType": "Banner",
      "roles": "student",
      "showInDock": false,
      "showInHome": true,
      "networkrequired": true,
      "analytics": false,
      "pages": 
      [
        {
          "pageid": "Moodle15",
          "pageTemplate": "<div><\/div>",
          "pageprocessor": "function pageprocessorMoodle15(pagedef, $scope, $routeParams, $compile, $http, $rootScope, $sce, $window, $location) {\r\n  $.blockUI();\r\n  try {\r\n    var launchurl = \"https://my.mc.edu/cas/login?service=http://moodle.mc.edu\";\r\n    //var launchurl=\"https://my.curry.edu/cas/login?service=https%3A%2F%2Fmy.curry.edu%2Fpaf%2Fauthorize\";\r\n    var iabRef = window.open(launchurl, \"_blank\", \"location=no,hidden=yes,clearcache=yes,enableViewportScale=yes\");\r\n    var hideBlockUi = function() {\r\n      //window.open(qlssourl, \"_blank\");\r\n      iabRef.show();\r\n      $.unblockUI();\r\n    };\r\n    var loadStop = function(data) {\r\n      iabRef.executeScript({\r\n        code: cd\r\n      }, cb);\r\n      if (data.url.indexOf(\"service\") == -1) {\r\n        hideBlockUi();\r\n      }\r\n    };\r\n    iabRef.addEventListener(\"loadstop\", loadStop);\r\n    var iabClose = function(data) {\r\n      $.unblockUI();\r\n      $location.path(\"/home\");\r\n      $scope.$apply();\r\n\r\n    };\r\n    iabRef.addEventListener(\"exit\", iabClose);\r\n    var username = $.jStorage.get(\"username\");\r\n    var password = $.jStorage.get(\"password\");\r\n    var cd = \"document.getElementById('username').value = '\" + username + \"';document.getElementById('password').value = '\" + password + \"';document.getElementsByClassName('btn-submit')[0].click();\";\r\n\r\n    var cb = function(data) {};\r\n\r\n\r\n  } catch (e) {\r\n    alert(\"Error : \" + e);\r\n  }\r\n\r\n\r\n}\r\n\r\n\r\n",
          "datatemplate": "<div><h1>Here is a sample HTML content..!!<\/h1><\/div>"
        }
      ]
    },
    {
      "id": 20983,
      "name": "Banner7",
      "displayname": "Banner",
      "logo": "myMC/Banner7.png",
      "logourl": "myMC/Banner7.png",
      "description": "Banner",
      "appFeatureType": "Banner",
      "roles": null,
      "showInDock": false,
      "showInHome": true,
      "networkrequired": true,
      "analytics": false,
      "pages": 
      [
        {
          "pageid": "Banner7",
          "pageTemplate": "<div><\/div>",
          "pageprocessor": "function pageprocessorBanner7(pagedef, $scope, $routeParams, $compile, $http, $rootScope, $sce, $window, $location) {\r\n  $.blockUI();\r\n  try {\r\n    var launchurl = \"https://my.mc.edu/cas/login?service=https://bannerss.mc.edu/pls/PROD8/twbkwbis.P_GenMenu?name=bmenu.P_MainMnu\";\r\n    //var launchurl=\"https://my.curry.edu/cas/login?service=https%3A%2F%2Fmy.curry.edu%2Fpaf%2Fauthorize\";\r\n    var iabRef = window.open(launchurl, \"_blank\", \"location=no,hidden=yes,clearcache=yes,enableViewportScale=yes\");\r\n    var hideBlockUi = function() {\r\n      //window.open(qlssourl, \"_blank\");\r\n      iabRef.show();\r\n      $.unblockUI();\r\n    };\r\n    var loadStop = function(data) {\r\n      iabRef.executeScript({\r\n        code: cd\r\n      }, cb);\r\n      if (data.url.indexOf(\"service\") == -1) {\r\n        hideBlockUi();\r\n      }\r\n    };\r\n    iabRef.addEventListener(\"loadstop\", loadStop);\r\n    var iabClose = function(data) {\r\n      $.unblockUI();\r\n      $location.path(\"/home\");\r\n      $scope.$apply();\r\n\r\n    };\r\n    iabRef.addEventListener(\"exit\", iabClose);\r\n    var username = $.jStorage.get(\"username\");\r\n    var password = $.jStorage.get(\"password\");\r\n    var cd = \"document.getElementById('username').value = '\" + username + \"';document.getElementById('password').value = '\" + password + \"';document.getElementsByClassName('btn-submit')[0].click();\";\r\n\r\n    var cb = function(data) {};\r\n\r\n\r\n  } catch (e) {\r\n    alert(\"Error : \" + e);\r\n  }\r\n\r\n\r\n}\r\n\r\n\r\n",
          "datatemplate": "<div><h1>Here is a sample HTML content..!!<\/h1><\/div>"
        }
      ]
    },
    {
      "id": 20985,
      "name": "Settings2",
      "displayname": "Settings",
      "logo": "myMC/Settings2.png",
      "logourl": "myMC/Settings2.png",
      "description": "Settings",
      "appFeatureType": "Public",
      "roles": null,
      "showInDock": false,
      "showInHome": false,
      "networkrequired": true,
      "analytics": false,
      "pages": 
      [
        {
          "pageid": "Settings2",
          "pageTemplate": "<div><\/div>",
          "datatemplate": "<style type=\"text/css\">\r\n    .switch-handle {\r\n        border-color: #efefef !important;\r\n    }\r\n    \r\n    .backButtonArrow {\r\n        display: none;\r\n    }\r\n    \r\n    .app-body {\r\n        background-color: #efefef;\r\n        background: #efefef;\r\n    }\r\na { color: inherit; } \r\n    \r\n    @import url(http://fonts.googleapis.com/css?family=Open+Sans:300italic,400italic,700italic,300,400,700);\r\n    .openSans {\r\n        font-family: 'Open Sans', sans-serif;\r\n    }\r\n    \r\n    .list-group-item {\r\n        background: transparent;\r\n    }\r\n    \r\n    .list-group-item .fa.pull-right,\r\n    a.list-group-item .fa.pull-right {\r\n        margin-top: 0px\r\n    }\r\n    \r\n    .liItems {\r\n        background: #fff;\r\n        padding: 15px 10;\r\n        font-size: 16px;\r\n        color: #000;\r\n    }\r\n    \r\n    .switch.active {\r\n        background-color: #3eada7;\r\n        border: 1px solid #dedede;\r\n    }\r\n    \r\n    a.list-group-item {\r\n        color: #000;\r\n    }\r\n<\/style>\r\n<div style=\"margin-top:3%;padding:0px;\" class='openSans'>\r\n    <!-- <div class='list-group'>\r\n        <div class='list-group-item liItems'>\r\n            Access to Camera\r\n            <switch class=\"pull-right\" ng-change=\"CameraChange\" ng-model=\"camera\" style=\"margin-top:-3px;\"><\/switch>\r\n        <\/div>\r\n        <div class='list-group-item liItems'>\r\n            Location Tracking\r\n            <switch class=\"pull-right\" ng-change=\"locationChange\" ng-model=\"location\" style=\"margin-top:-3px;\"><\/switch>\r\n        <\/div>\r\n        <div class='list-group-item liItems'>\r\n            Push Notification\r\n            <switch class=\"pull-right\" ng-change=\"NotificationChange\" ng-model=\"notification\" style=\"margin-top:-3px;\"><\/switch>\r\n        <\/div>\r\n    <\/div>\r\n    <div style='padding:5px 10px !important;color:#999;font-size:14px;'>\r\n        PRIVACY AND SECURITY\r\n    <\/div>\r\n    <div class='list-group'>\r\n        <div class='list-group-item liItems'>\r\n            Change Password<i class=\"fa fa-angle-right pull-right\"><\/i>\r\n        <\/div>\r\n    <\/div>-->\r\n    <div style='padding:5px 10px !important;color:#999;font-size:14px;'>\r\n        ABOUT\r\n    <\/div>\r\n    <div class='list-group'>\r\n        <a class='list-group-item liItems'>\r\n                Version<span class=\"pull-right\">{{metadata.version}}<\/span>\r\n            <\/a>\r\n        <a class='list-group-item liItems' ng-click=\"devicePage()\">\r\n                Device Info<i class=\"fa fa-angle-right pull-right\"><\/i>\r\n            <\/a>\r\n        <a class='list-group-item liItems' ng-click=\"resetmyapp()\">\r\n                Troubleshoot<i class=\"fa fa-angle-right pull-right\"><\/i>\r\n            <\/a>\r\n\r\n\r\n\r\n        <a id=\"sendfeedbackbtn\" class=\"list-group-item liItems\" href=\"#/sendfeedback\">\r\n            Send Feedback\r\n            <i class=\"fa fa-angle-right pull-right\"><\/i>\r\n        <\/a>\r\n        <a id=\"reportissuebtn\" class=\"list-group-item liItems\" href=\"#/reportissue\">\r\n            Report Issue\r\n            <i class=\"fa fa-angle-right pull-right\"><\/i>\r\n        <\/a>\r\n\r\n\r\n    <\/div>\r\n\r\n    <!--<div class='list-group'>\r\n        <div class='list-group-item liItems' ng-click=\"logOut()\">\r\n            Sign Out\r\n        <\/div>\r\n    <\/div>-->\r\n    <br>\r\n<\/div>",
          "pageprocessor": "function pageprocessorSettings2(pagedef, $scope, $routeParams, $compile, $http, $rootScope, $sce, $window, $location) {\r\n    var data1 = $compile($(pagedef.datatemplate))($scope);\r\n    $(\"#appContent\").append(data1);\r\n    \r\n    if($.jStorage.get(\"notificationAllowed\") == null || $.jStorage.get(\"notificationAllowed\") == undefined){\r\n        $.jStorage.set(\"notificationAllowed\",true);\r\n        $scope.notification=true;\r\n    }else{\r\n        $scope.notification=$.jStorage.get(\"notificationAllowed\");\r\n    }\r\n    if($.jStorage.get(\"locationAllowed\") == null || $.jStorage.get(\"locationAllowed\") == undefined){\r\n        $.jStorage.set(\"locationAllowed\",true);\r\n        $scope.location=true;\r\n    }else{\r\n        $scope.location=$.jStorage.get(\"locationAllowed\");\r\n    }\r\n    if($.jStorage.get(\"cameraAllowed\") == null || $.jStorage.get(\"cameraAllowed\") == undefined){\r\n        $.jStorage.set(\"cameraAllowed\",true);\r\n        $scope.camera=true;\r\n    }else{\r\n        $scope.camera=$.jStorage.get(\"cameraAllowed\");\r\n    }\r\n    \r\n    $scope.logOut=function(){\r\n        $scope.confirm=function(btn){\r\n            if(btn == 1){\r\n            $.jStorage.set(\"userdetails\",null);\r\n            $location.path(\"/app/SignIn2/SignIn2\");\r\n            $.jStorage.deleteKey(\"UserProfile\");\r\n    }else{\r\n    $location.path(\"/home\");\r\n    }\r\n    $scope.$apply();\r\n    }\r\n    navigator.notification.confirm(\"Are you sure you want to logout?\",$scope.confirm,'Logout',['Yes','No']);\r\n    }\r\n\r\n    $scope.$watch('notification', function (newVal) {\r\n        $.jStorage.set(\"notificationAllowed\",$scope.notification);\r\n        if($scope.notification == false){\r\n        parsePlugin.unsubscribe('IIITD', function(msg) {\r\n             }, function(e) {\r\n             });\r\n        }\r\n    });\r\n\r\n    $scope.$watch('location', function (newVal) {\r\n        $.jStorage.set(\"locationAllowed\",$scope.location);\r\n    });\r\n\r\n    $scope.$watch('camera', function (newVal) {\r\n        $.jStorage.set(\"cameraAllowed\",$scope.camera);\r\n    });\r\n\r\n    $scope.resetApp=function(btn){\r\n        if(btn == 1){\r\n            var tenant = MyCampusApp.config.tenant;\r\n                $.jStorage.deleteKey(tenant + '-metadata');\r\n                $location.path(\"/home\");\r\n                $scope.$apply();\r\n        }\r\n    }\r\n    $scope.resetmyapp = function () {\r\n        navigator.notification.confirm(\"Resetting your app clears all information associated with your app and initializes it with the default setting.  You can use this feature if your app is not functioning correctly. This feature requires network connectivity.\",$scope.resetApp,'Reset App',['Yes','No']);\r\n    }\r\n\r\n    $scope.devicePage=function(){\r\n        $location.path(\"/app/DevicePage/DevicePage\");\r\n    }\r\n\r\n}",
          "endpoint": "notdefined"
        }
      ]
    },
    {
      "id": 20987,
      "name": "DevicePage",
      "displayname": "Device Info",
      "logo": "myMC/DevicePage.png",
      "logourl": "myMC/DevicePage.png",
      "description": "DevicePage",
      "appFeatureType": "Public",
      "roles": null,
      "showInDock": false,
      "showInHome": false,
      "networkrequired": true,
      "analytics": false,
      "pages": 
      [
        {
          "pageid": "DevicePage",
          "pageTemplate": "<div><\/div>",
          "pageprocessor": "function pageprocessorDevicePage(pagedef, $scope, $routeParams, $compile, $http, $rootScope, $sce, $window, $location) {\r\nvar data1 = $compile($(pagedef.datatemplate))($scope);\r\n    $(\"#appContent\").append(data1);\r\n    $rootScope.back=function(){\r\n        $location.path(\"/app/Settings2/Settings2\");\r\n    }\r\nif(window.device) {\r\n            $scope.devicename = window.device.name;\r\n            $scope.deviceuuid = window.device.uuid;\r\n            $scope.deviceplatform = window.device.platform;\r\n            $scope.deviceversion = window.device.version;\r\n            $scope.devicemodel = window.device.model.replace(/,/g,'.');\r\n        }else {\r\n            $scope.devicename = \"Kryptos Emulator\";\r\n            $scope.deviceuuid = \"N/A\";\r\n            $scope.deviceplatform = \"Desktop\";\r\n            $scope.deviceversion = \"N/A\";\r\n            $scope.devicemodel = \"N/A\";\r\n        }\r\n}",
          "datatemplate": "<style type=\"text/css\">\r\n  .app-body {\r\n    background-color: #efefef;\r\n    background: #efefef;\r\n  }\r\n  \r\n  @import url(http://fonts.googleapis.com/css?family=Open+Sans:300italic,400italic,700italic,300,400,700);\r\n  .openSans {\r\n    font-family: 'Open Sans', sans-serif;\r\n  }\r\n  \r\n  .list-group-item {\r\n    background: transparent;\r\n  }\r\n  \r\n  .list-group-item .fa.pull-right,\r\n  a.list-group-item .fa.pull-right {\r\n    margin-top: 0px\r\n  }\r\n  \r\n  .liItems {\r\n    background: #fff;\r\n    padding: 10px;\r\n    font-size: 16px;\r\n    color: #000;\r\n  }\r\n  \r\n  .switch.active {\r\n    background-color: #3eada7;\r\n    border: 1px solid #dedede;\r\n  }\r\n  \r\n  a.list-group-item {\r\n    color: #000;\r\n  }\r\n  \r\n  a span {\r\n    color: #6f6f6f;\r\n  }\r\n<\/style>\r\n<div style=\"padding:0px;\" class='openSans'>\r\n  <div class='list-group'>\r\n    <a class='list-group-item liItems'>\r\n                UUID<span class=\"pull-right\" style=\"font-size:12px\">{{deviceuuid}}<\/span>\r\n            <\/a>\r\n    <a ng-click=\"devicePage()\" class='list-group-item liItems'>\r\n                Platform<span class=\"pull-right\">{{deviceplatform}}<\/span>\r\n            <\/a>\r\n    <a class='list-group-item liItems' ng-click=\"resetmyapp()\">\r\n                Version<span class=\"pull-right\">{{deviceversion}}<\/span>\r\n            <\/a>\r\n    <a class='list-group-item liItems'>\r\n                Model<span class=\"pull-right\">{{devicemodel}}<\/span>\r\n            <\/a>\r\n  <\/div>\r\n<\/div>",
          "endpoint": "notdefined"
        }
      ]
    }
  ],
  "pages": 
  [
  ]
}